<?xml version="1.0" encoding="UTF-8" standalone="no"?>
<!-- Created with Inkscape (http://www.inkscape.org/) -->

<svg
   xmlns:dc="http://purl.org/dc/elements/1.1/"
   xmlns:cc="http://creativecommons.org/ns#"
   xmlns:rdf="http://www.w3.org/1999/02/22-rdf-syntax-ns#"
   xmlns:svg="http://www.w3.org/2000/svg"
   xmlns="http://www.w3.org/2000/svg"
   xmlns:sodipodi="http://sodipodi.sourceforge.net/DTD/sodipodi-0.dtd"
   xmlns:inkscape="http://www.inkscape.org/namespaces/inkscape"
   width="30"
   height="30"
   id="svg2"
   version="1.1"
   inkscape:version="0.48.4 r9939"
   sodipodi:docname="ic_alarm_active.svg"
   inkscape:export-filename="/home/alastar/Programmes/android/SimpleAlarm/res/drawable-mdpi/ic_alarm_active.png"
   inkscape:export-xdpi="148"
   inkscape:export-ydpi="148">
  <defs
     id="defs4" />
  <sodipodi:namedview
     id="base"
     pagecolor="#ffffff"
     bordercolor="#666666"
     borderopacity="1.0"
     inkscape:pageopacity="0.0"
     inkscape:pageshadow="2"
     inkscape:zoom="11.2"
     inkscape:cx="20.390452"
     inkscape:cy="13.21506"
     inkscape:document-units="px"
     inkscape:current-layer="layer1"
     showgrid="true"
     inkscape:window-width="1022"
     inkscape:window-height="551"
     inkscape:window-x="2"
     inkscape:window-y="0"
     inkscape:window-maximized="1"
     inkscape:snap-nodes="true"
     inkscape:object-nodes="true"
     inkscape:snap-to-guides="true"
     fit-margin-top="0"
     fit-margin-left="0"
     fit-margin-right="0"
     fit-margin-bottom="0"
     inkscape:snap-midpoints="true">
    <inkscape:grid
       type="xygrid"
       id="grid2985"
       empspacing="5"
       visible="true"
       enabled="true"
       snapvisiblegridlinesonly="true"
       originx="-350px"
       originy="-380px" />
  </sodipodi:namedview>
  <metadata
     id="metadata7">
    <rdf:RDF>
      <cc:Work
         rdf:about="">
        <dc:format>image/svg+xml</dc:format>
        <dc:type
           rdf:resource="http://purl.org/dc/dcmitype/StillImage" />
        <dc:title></dc:title>
      </cc:Work>
    </rdf:RDF>
  </metadata>
  <g
     inkscape:label="Calque 1"
     inkscape:groupmode="layer"
     id="layer1"
     transform="translate(-350,-642.36218)">
    <path
       style="fill:#00ffff;fill-opacity:0.70588235;stroke:none"
       d="m 361,660.36218 0,-1 3,-3 1,1 -3,3 z"
       id="path3034-4-6"
       inkscape:connector-curvature="0"
       sodipodi:nodetypes="cccccc" />
    <path
       style="fill:#00ffff;fill-opacity:0.70588235;stroke:none"
       d="m 365,649.36218 0.70711,0.70711 0,5.29289 -1.41422,0 0,-5.29289 z"
       id="path3034-4-6-6"
       inkscape:connector-curvature="0"
       sodipodi:nodetypes="cccccc" />
    <path
       style="fill:#00ffff;fill-opacity:0.70588235;stroke:none"
       d="M 15 4 C 9.4771525 4 5 8.4771525 5 14 C 5 17.018161 6.3233566 19.728964 8.4375 21.5625 L 5 25 L 5 26 L 6 26 L 9.59375 22.40625 C 11.151495 23.407892 13.010412 24 15 24 C 16.989588 24 18.848505 23.407892 20.40625 22.40625 L 24 26 L 25 26 L 25 25 L 21.5625 21.5625 C 23.676643 19.728964 25 17.018161 25 14 C 25 8.4771525 20.522847 4 15 4 z M 15 6 C 19.418278 6 23 9.581722 23 14 C 23 18.418278 19.418278 22 15 22 C 10.581722 22 7 18.418278 7 14 C 7 9.581722 10.581722 6 15 6 z "
       transform="translate(350,642.36218)"
       id="path3883" />
    <path
       style="fill:#00ffff;fill-opacity:0.70588235;stroke:none"
       d="m 373.64644,647.00863 0.70711,0.7071 c 0.70711,0.70709 0.70711,2.12131 0,2.82844 l -3.53553,-3.53553 c 0.70711,-0.70711 2.12133,-0.70711 2.82842,0 z"
       id="path3859"
       inkscape:connector-curvature="0"
       sodipodi:nodetypes="ccccc" />
    <path
       style="fill:#00ffff;fill-opacity:0.70588235;stroke:none"
       d="m 355.64645,647.71573 0.70711,-0.7071 c 0.70711,-0.70711 2.12133,-0.70711 2.82842,0 l -3.53553,3.53553 c -0.70711,-0.7071 -0.70711,-2.12132 0,-2.82843 z"
       id="path3859-1"
       inkscape:connector-curvature="0"
       sodipodi:nodetypes="ccccc" />
  </g>
</svg>
