<?xml version="1.0" encoding="UTF-8" standalone="no"?>
<!-- Created with Inkscape (http://www.inkscape.org/) -->

<svg
   xmlns:dc="http://purl.org/dc/elements/1.1/"
   xmlns:cc="http://creativecommons.org/ns#"
   xmlns:rdf="http://www.w3.org/1999/02/22-rdf-syntax-ns#"
   xmlns:svg="http://www.w3.org/2000/svg"
   xmlns="http://www.w3.org/2000/svg"
   xmlns:xlink="http://www.w3.org/1999/xlink"
   xmlns:sodipodi="http://sodipodi.sourceforge.net/DTD/sodipodi-0.dtd"
   xmlns:inkscape="http://www.inkscape.org/namespaces/inkscape"
   width="30"
   height="30"
   id="svg2"
   version="1.1"
   inkscape:version="0.48.5 r10040"
   sodipodi:docname="ic_action_add.svg"
   inkscape:export-filename="/home/bigfoot/Programmes/android/simplealarm/SimpleAlarm/simplealarm/src/main/res/drawable-mdpi/ic_action_add.png"
   inkscape:export-xdpi="96"
   inkscape:export-ydpi="96">
  <defs
     id="defs4">
    <linearGradient
       id="linearGradient3772">
      <stop
         style="stop-color:#ffffff;stop-opacity:0.17021276;"
         offset="0"
         id="stop3774" />
      <stop
         id="stop3780"
         offset="0.5"
         style="stop-color:#ffffff;stop-opacity:0.50354612;" />
      <stop
         style="stop-color:#ffffff;stop-opacity:0.17021276;"
         offset="1"
         id="stop3776" />
    </linearGradient>
    <linearGradient
       inkscape:collect="always"
       xlink:href="#linearGradient3772-2"
       id="linearGradient3778-8"
       x1="240"
       y1="320.36218"
       x2="240"
       y2="324.36218"
       gradientUnits="userSpaceOnUse"
       gradientTransform="translate(-10,15.000004)" />
    <linearGradient
       id="linearGradient3772-2">
      <stop
         style="stop-color:#ffffff;stop-opacity:0.17021276;"
         offset="0"
         id="stop3774-7" />
      <stop
         id="stop3780-6"
         offset="0.5"
         style="stop-color:#ffffff;stop-opacity:0.50354612;" />
      <stop
         style="stop-color:#ffffff;stop-opacity:0.17021276;"
         offset="1"
         id="stop3776-0" />
    </linearGradient>
    <linearGradient
       inkscape:collect="always"
       xlink:href="#linearGradient3772-2-8"
       id="linearGradient3845-9"
       x1="225"
       y1="339.36218"
       x2="225"
       y2="335.36218"
       gradientUnits="userSpaceOnUse"
       gradientTransform="translate(0,5.2171874e-6)" />
    <linearGradient
       id="linearGradient3772-2-8">
      <stop
         style="stop-color:#ffffff;stop-opacity:0.17021276;"
         offset="0"
         id="stop3774-7-6" />
      <stop
         id="stop3780-6-6"
         offset="0.5"
         style="stop-color:#ffffff;stop-opacity:0.50354612;" />
      <stop
         style="stop-color:#ffffff;stop-opacity:0.17021276;"
         offset="1"
         id="stop3776-0-8" />
    </linearGradient>
    <linearGradient
       inkscape:collect="always"
       xlink:href="#linearGradient3772-2-0"
       id="linearGradient3845-98"
       x1="225"
       y1="339.36218"
       x2="225"
       y2="335.36218"
       gradientUnits="userSpaceOnUse"
       gradientTransform="translate(0,5.2171874e-6)" />
    <linearGradient
       id="linearGradient3772-2-0">
      <stop
         style="stop-color:#ffffff;stop-opacity:0.17021276;"
         offset="0"
         id="stop3774-7-8" />
      <stop
         id="stop3780-6-2"
         offset="0.5"
         style="stop-color:#ffffff;stop-opacity:0.50354612;" />
      <stop
         style="stop-color:#ffffff;stop-opacity:0.17021276;"
         offset="1"
         id="stop3776-0-9" />
    </linearGradient>
    <linearGradient
       inkscape:collect="always"
       xlink:href="#linearGradient3772-2-6"
       id="linearGradient3845-2"
       x1="225"
       y1="339.36218"
       x2="225"
       y2="335.36218"
       gradientUnits="userSpaceOnUse"
       gradientTransform="translate(0,5.2171874e-6)" />
    <linearGradient
       id="linearGradient3772-2-6">
      <stop
         style="stop-color:#ffffff;stop-opacity:0.17021276;"
         offset="0"
         id="stop3774-7-5" />
      <stop
         id="stop3780-6-0"
         offset="0.5"
         style="stop-color:#ffffff;stop-opacity:0.50354612;" />
      <stop
         style="stop-color:#ffffff;stop-opacity:0.17021276;"
         offset="1"
         id="stop3776-0-5" />
    </linearGradient>
    <linearGradient
       y2="335.36218"
       x2="225"
       y1="339.36218"
       x1="225"
       gradientTransform="matrix(0,1,-1,0,567.36217,107.36218)"
       gradientUnits="userSpaceOnUse"
       id="linearGradient3863-5-6"
       xlink:href="#linearGradient3772-2-0-6"
       inkscape:collect="always" />
    <linearGradient
       id="linearGradient3772-2-0-6">
      <stop
         style="stop-color:#ffffff;stop-opacity:0.17021276;"
         offset="0"
         id="stop3774-7-8-5" />
      <stop
         id="stop3780-6-2-0"
         offset="0.5"
         style="stop-color:#ffffff;stop-opacity:0.50354612;" />
      <stop
         style="stop-color:#ffffff;stop-opacity:0.17021276;"
         offset="1"
         id="stop3776-0-9-0" />
    </linearGradient>
    <linearGradient
       y2="335.36218"
       x2="225"
       y1="339.36218"
       x1="225"
       gradientTransform="matrix(0,1,-1,0,532.36217,112.36218)"
       gradientUnits="userSpaceOnUse"
       id="linearGradient3938"
       xlink:href="#linearGradient3772-2-0-6"
       inkscape:collect="always" />
    <linearGradient
       id="linearGradient3772-2-8-9">
      <stop
         style="stop-color:#ffffff;stop-opacity:0.17021276;"
         offset="0"
         id="stop3774-7-6-4" />
      <stop
         id="stop3780-6-6-8"
         offset="0.5"
         style="stop-color:#ffffff;stop-opacity:0.50354612;" />
      <stop
         style="stop-color:#ffffff;stop-opacity:0.17021276;"
         offset="1"
         id="stop3776-0-8-7" />
    </linearGradient>
    <linearGradient
       inkscape:collect="always"
       xlink:href="#linearGradient3772-2-5"
       id="linearGradient3845-26"
       x1="225"
       y1="339.36218"
       x2="225"
       y2="335.36218"
       gradientUnits="userSpaceOnUse"
       gradientTransform="translate(0,5.2171874e-6)" />
    <linearGradient
       id="linearGradient3772-2-5">
      <stop
         style="stop-color:#ffffff;stop-opacity:0.17021276;"
         offset="0"
         id="stop3774-7-7" />
      <stop
         id="stop3780-6-7"
         offset="0.5"
         style="stop-color:#ffffff;stop-opacity:0.50354612;" />
      <stop
         style="stop-color:#ffffff;stop-opacity:0.17021276;"
         offset="1"
         id="stop3776-0-58" />
    </linearGradient>
    <linearGradient
       y2="335.36218"
       x2="225"
       y1="339.36218"
       x1="225"
       gradientTransform="matrix(0,1,-1,0,532.36217,112.36218)"
       gradientUnits="userSpaceOnUse"
       id="linearGradient3938-7"
       xlink:href="#linearGradient3772-2-0-6-2"
       inkscape:collect="always" />
    <linearGradient
       id="linearGradient3772-2-0-6-2">
      <stop
         style="stop-color:#ffffff;stop-opacity:0.17021276;"
         offset="0"
         id="stop3774-7-8-5-3" />
      <stop
         id="stop3780-6-2-0-3"
         offset="0.5"
         style="stop-color:#ffffff;stop-opacity:0.50354612;" />
      <stop
         style="stop-color:#ffffff;stop-opacity:0.17021276;"
         offset="1"
         id="stop3776-0-9-0-4" />
    </linearGradient>
    <linearGradient
       y2="335.36218"
       x2="225"
       y1="339.36218"
       x1="225"
       gradientTransform="matrix(0,1,1,0,-132.36217,112.36218)"
       gradientUnits="userSpaceOnUse"
       id="linearGradient4030"
       xlink:href="#linearGradient3772-2-0-6-2"
       inkscape:collect="always" />
    <linearGradient
       y2="335.36218"
       x2="225"
       y1="339.36218"
       x1="225"
       gradientTransform="matrix(0,1,1,0,-132.36217,112.36218)"
       gradientUnits="userSpaceOnUse"
       id="linearGradient4030-8"
       xlink:href="#linearGradient3772-2-0-6-2-7"
       inkscape:collect="always" />
    <linearGradient
       id="linearGradient3772-2-0-6-2-7">
      <stop
         style="stop-color:#ffffff;stop-opacity:0.17021276;"
         offset="0"
         id="stop3774-7-8-5-3-6" />
      <stop
         id="stop3780-6-2-0-3-2"
         offset="0.5"
         style="stop-color:#ffffff;stop-opacity:0.50354612;" />
      <stop
         style="stop-color:#ffffff;stop-opacity:0.17021276;"
         offset="1"
         id="stop3776-0-9-0-4-3" />
    </linearGradient>
    <linearGradient
       y2="335.36218"
       x2="225"
       y1="339.36218"
       x1="225"
       gradientTransform="matrix(-1,0,0,1,428,8.0000126)"
       gradientUnits="userSpaceOnUse"
       id="linearGradient4067"
       xlink:href="#linearGradient3772-2-0-6-2-7"
       inkscape:collect="always" />
    <linearGradient
       y2="335.36218"
       x2="225"
       y1="339.36218"
       x1="225"
       gradientTransform="matrix(-1,0,0,-1,430,689.72435)"
       gradientUnits="userSpaceOnUse"
       id="linearGradient3863-9-9"
       xlink:href="#linearGradient3772-2-8-9-9"
       inkscape:collect="always" />
    <linearGradient
       id="linearGradient3772-2-8-9-9">
      <stop
         style="stop-color:#ffffff;stop-opacity:0.17021276;"
         offset="0"
         id="stop3774-7-6-4-5" />
      <stop
         id="stop3780-6-6-8-1"
         offset="0.5"
         style="stop-color:#ffffff;stop-opacity:0.50354612;" />
      <stop
         style="stop-color:#ffffff;stop-opacity:0.17021276;"
         offset="1"
         id="stop3776-0-8-7-2" />
    </linearGradient>
    <linearGradient
       y2="335.36218"
       x2="225"
       y1="339.36218"
       x1="225"
       gradientTransform="matrix(0,1,-1,0,537.36217,115.36218)"
       gradientUnits="userSpaceOnUse"
       id="linearGradient4104"
       xlink:href="#linearGradient3772-2-8-9-9"
       inkscape:collect="always" />
    <linearGradient
       y2="335.36218"
       x2="225"
       y1="339.36218"
       x1="225"
       gradientTransform="matrix(-1,0,0,1,428,8.0000126)"
       gradientUnits="userSpaceOnUse"
       id="linearGradient4067-0"
       xlink:href="#linearGradient3772-2-0-6-2-7-6"
       inkscape:collect="always" />
    <linearGradient
       id="linearGradient3772-2-0-6-2-7-6">
      <stop
         style="stop-color:#ffffff;stop-opacity:0.17021276;"
         offset="0"
         id="stop3774-7-8-5-3-6-4" />
      <stop
         id="stop3780-6-2-0-3-2-8"
         offset="0.5"
         style="stop-color:#ffffff;stop-opacity:0.50354612;" />
      <stop
         style="stop-color:#ffffff;stop-opacity:0.17021276;"
         offset="1"
         id="stop3776-0-9-0-4-3-0" />
    </linearGradient>
    <linearGradient
       y2="335.36215"
       x2="227"
       y1="339.36215"
       x1="227"
       gradientTransform="matrix(-1,0,0,1,428,-6.9999792)"
       gradientUnits="userSpaceOnUse"
       id="linearGradient4141"
       xlink:href="#linearGradient3772-2-0-6-2-7-6"
       inkscape:collect="always" />
    <linearGradient
       y2="335.36218"
       x2="225"
       y1="339.36218"
       x1="225"
       gradientTransform="matrix(-1,0,0,-1,430,689.72435)"
       gradientUnits="userSpaceOnUse"
       id="linearGradient3863-9-5"
       xlink:href="#linearGradient3772-2-8-9-8"
       inkscape:collect="always" />
    <linearGradient
       id="linearGradient3772-2-8-9-8">
      <stop
         style="stop-color:#ffffff;stop-opacity:0.17021276;"
         offset="0"
         id="stop3774-7-6-4-9" />
      <stop
         id="stop3780-6-6-8-3"
         offset="0.5"
         style="stop-color:#ffffff;stop-opacity:0.50354612;" />
      <stop
         style="stop-color:#ffffff;stop-opacity:0.17021276;"
         offset="1"
         id="stop3776-0-8-7-6" />
    </linearGradient>
    <linearGradient
       y2="335.36218"
       x2="228"
       y1="339.36218"
       x1="228"
       gradientTransform="matrix(0,1,-1,0,537.36217,100.36218)"
       gradientUnits="userSpaceOnUse"
       id="linearGradient4178"
       xlink:href="#linearGradient3772-2-8-9-8"
       inkscape:collect="always" />
    <linearGradient
       inkscape:collect="always"
       xlink:href="#linearGradient3772-2-8-9-8"
       id="linearGradient4244"
       gradientUnits="userSpaceOnUse"
       gradientTransform="matrix(0,1,-1,0,509.36217,114.36218)"
       x1="228"
       y1="339.36218"
       x2="228"
       y2="335.36218" />
    <linearGradient
       inkscape:collect="always"
       xlink:href="#linearGradient3772-2-0-6-2-7-6"
       id="linearGradient4246"
       gradientUnits="userSpaceOnUse"
       gradientTransform="matrix(-1,0,0,1,400,7.0000227)"
       x1="227"
       y1="339.36215"
       x2="227"
       y2="335.36215" />
    <linearGradient
       inkscape:collect="always"
       xlink:href="#linearGradient3772-2-8-9-9"
       id="linearGradient4248"
       gradientUnits="userSpaceOnUse"
       gradientTransform="matrix(0,1,-1,0,509.36217,129.36218)"
       x1="225"
       y1="339.36218"
       x2="225"
       y2="335.36218" />
    <linearGradient
       inkscape:collect="always"
       xlink:href="#linearGradient3772-2-0-6-2-7"
       id="linearGradient4250"
       gradientUnits="userSpaceOnUse"
       gradientTransform="matrix(-1,0,0,1,400,22.000015)"
       x1="225"
       y1="339.36218"
       x2="225"
       y2="335.36218" />
    <linearGradient
       inkscape:collect="always"
       xlink:href="#linearGradient3772-2-0-6-2"
       id="linearGradient4252"
       gradientUnits="userSpaceOnUse"
       gradientTransform="matrix(0,1,1,0,-160.36217,126.36218)"
       x1="225"
       y1="339.36218"
       x2="225"
       y2="335.36218" />
    <linearGradient
       inkscape:collect="always"
       xlink:href="#linearGradient3772-2-0-6"
       id="linearGradient4254"
       gradientUnits="userSpaceOnUse"
       gradientTransform="matrix(0,1,-1,0,504.36217,126.36218)"
       x1="225"
       y1="339.36218"
       x2="225"
       y2="335.36218" />
  </defs>
  <sodipodi:namedview
     id="base"
     pagecolor="#ffffff"
     bordercolor="#666666"
     borderopacity="1.0"
     inkscape:pageopacity="0.0"
     inkscape:pageshadow="2"
     inkscape:zoom="22.627417"
     inkscape:cx="21.23054"
     inkscape:cy="16.486061"
     inkscape:document-units="px"
     inkscape:current-layer="layer1"
     showgrid="true"
     inkscape:snap-nodes="true"
     inkscape:snap-midpoints="false"
     inkscape:snap-grids="true"
     inkscape:snap-to-guides="false"
     inkscape:object-nodes="true"
     fit-margin-top="0"
     fit-margin-left="0"
     fit-margin-right="0"
     fit-margin-bottom="0"
     inkscape:window-width="1301"
     inkscape:window-height="744"
     inkscape:window-x="65"
     inkscape:window-y="24"
     inkscape:window-maximized="1"
     inkscape:object-paths="true"
     inkscape:snap-intersection-paths="true"
     showguides="true"
     inkscape:guide-bbox="true">
    <inkscape:grid
       type="xygrid"
       id="grid3766"
       empspacing="5"
       visible="true"
       enabled="true"
       snapvisiblegridlinesonly="true"
       originx="-215px"
       originy="-700px" />
    <sodipodi:guide
       orientation="0,1"
       position="-59.464285,51.428571"
       id="guide4461" />
  </sodipodi:namedview>
  <metadata
     id="metadata7">
    <rdf:RDF>
      <cc:Work
         rdf:about="">
        <dc:format>image/svg+xml</dc:format>
        <dc:type
           rdf:resource="http://purl.org/dc/dcmitype/StillImage" />
        <dc:title />
      </cc:Work>
    </rdf:RDF>
  </metadata>
  <g
     inkscape:label="Calque 1"
     inkscape:groupmode="layer"
     id="layer1"
     transform="translate(-215,-322.36218)">
    <rect
       style="fill:none;fill-opacity:1;stroke:none"
       id="rect4459"
       width="30"
       height="30"
       x="-5"
       y="-4.9999981"
       transform="translate(220,327.36218)" />
    <g
       id="g4453"
       style="fill:#ffffff;stroke:none"
       transform="matrix(0,-1,1,0,-107.36218,567.36218)">
      <path
         sodipodi:nodetypes="ccccc"
         inkscape:connector-curvature="0"
         id="path3837-6"
         d="m 228.5,347.36218 0,-20 3,0 0,20 z"
         style="fill:#ffffff;fill-opacity:0.51372549;stroke:none" />
      <path
         sodipodi:nodetypes="ccccc"
         inkscape:connector-curvature="0"
         id="path3837"
         d="m 220,335.86218 8.5,0 0,3 -8.5,0 z"
         style="fill:#ffffff;fill-opacity:0.51372549;stroke:none" />
      <path
         sodipodi:nodetypes="ccccc"
         inkscape:connector-curvature="0"
         id="path3837-3"
         d="m 240,338.86218 -8.5,0 0,-3 8.5,0 z"
         style="fill:#ffffff;fill-opacity:0.51372549;stroke:none" />
    </g>
    <rect
       style="fill:none;stroke:none"
       id="rect4199"
       width="20"
       height="20"
       x="220"
       y="327.36218"
       inkscape:export-filename="/home/alastar/Programmes/android/SimpleAlarm/res/drawable-mdpi/ic_action_add.png"
       inkscape:export-xdpi="148.5"
       inkscape:export-ydpi="148.5" />
  </g>
</svg>
