<?xml version="1.0" encoding="UTF-8" standalone="no"?>
<!-- Created with Inkscape (http://www.inkscape.org/) -->

<svg
   xmlns:dc="http://purl.org/dc/elements/1.1/"
   xmlns:cc="http://creativecommons.org/ns#"
   xmlns:rdf="http://www.w3.org/1999/02/22-rdf-syntax-ns#"
   xmlns:svg="http://www.w3.org/2000/svg"
   xmlns="http://www.w3.org/2000/svg"
   xmlns:sodipodi="http://sodipodi.sourceforge.net/DTD/sodipodi-0.dtd"
   xmlns:inkscape="http://www.inkscape.org/namespaces/inkscape"
   width="30"
   height="30"
   id="svg2"
   version="1.1"
   inkscape:version="0.48.4 r9939"
   sodipodi:docname="main_icon.svg"
   inkscape:export-filename="/home/alastar/Programmes/android/SimpleAlarm/res/drawable-mdpi/main_icon.png"
   inkscape:export-xdpi="148"
   inkscape:export-ydpi="148">
  <defs
     id="defs4" />
  <sodipodi:namedview
     id="base"
     pagecolor="#ffffff"
     bordercolor="#666666"
     borderopacity="1.0"
     inkscape:pageopacity="0.0"
     inkscape:pageshadow="2"
     inkscape:zoom="11.313709"
     inkscape:cx="11.284459"
     inkscape:cy="16.261236"
     inkscape:document-units="px"
     inkscape:current-layer="layer1"
     showgrid="true"
     inkscape:window-width="1022"
     inkscape:window-height="551"
     inkscape:window-x="2"
     inkscape:window-y="0"
     inkscape:window-maximized="1"
     inkscape:snap-nodes="true"
     inkscape:object-nodes="false"
     inkscape:snap-to-guides="true"
     fit-margin-top="0"
     fit-margin-left="0"
     fit-margin-right="0"
     fit-margin-bottom="0"
     inkscape:snap-midpoints="true"
     inkscape:snap-grids="true"
     inkscape:snap-object-midpoints="true">
    <inkscape:grid
       type="xygrid"
       id="grid2985"
       empspacing="5"
       visible="true"
       enabled="true"
       snapvisiblegridlinesonly="true"
       originx="-350px"
       originy="-380px" />
  </sodipodi:namedview>
  <metadata
     id="metadata7">
    <rdf:RDF>
      <cc:Work
         rdf:about="">
        <dc:format>image/svg+xml</dc:format>
        <dc:type
           rdf:resource="http://purl.org/dc/dcmitype/StillImage" />
        <dc:title></dc:title>
      </cc:Work>
    </rdf:RDF>
  </metadata>
  <g
     inkscape:label="Calque 1"
     inkscape:groupmode="layer"
     id="layer1"
     transform="translate(-350,-642.36218)">
    <path
       style="fill:#00ffff;fill-opacity:0.70588236999999998;stroke:none"
       d="m 372.42731,647.64833 c -0.0607,1.12135 -0.28732,1.88683 -0.83373,2.81586 -0.44494,0.75651 -0.80681,1.18495 -1.85795,2.19976 -2.44833,2.36373 -2.68349,2.63679 -3.04217,3.53258 -0.36297,0.90645 -0.30516,1.88505 0.16411,2.77806 0.34078,0.6485 0.92602,1.32768 1.98102,2.29899 2.04268,1.88065 2.69917,2.70183 3.20311,4.0067 0.25105,0.65006 0.40626,1.45642 0.40626,2.11061 l 0,0.46056 -7.46875,0 -7.46875,0 0,-0.46056 c 0,-0.51106 0.13448,-1.37394 0.28578,-1.83375 0.17483,-0.53132 0.60321,-1.33866 0.98521,-1.85676 0.36794,-0.49903 1.26441,-1.42219 2.79768,-2.881 0.43308,-0.41205 0.92127,-0.93199 1.08487,-1.15543 1.07978,-1.47474 1.1232,-2.84707 0.13744,-4.34375 -0.13632,-0.20696 -0.7115,-0.82306 -1.28366,-1.375 -2.25563,-2.17583 -2.59958,-2.55308 -3.1425,-3.44675 -0.53438,-0.8796 -0.86482,-2.06127 -0.86482,-3.09269 l 0,-0.49181 7.4783,0 7.47829,0 -0.0397,0.73438 z m -13.93756,0.4375 c 0.0683,0.47163 0.22425,0.99503 0.42823,1.43701 0.45964,0.99593 0.88012,1.48109 3.34528,3.85986 1.04542,1.00879 1.49119,1.58527 1.81597,2.34851 0.51695,1.21481 0.48563,2.35911 -0.0965,3.52649 -0.42342,0.84908 -0.76784,1.25454 -2.44832,2.88219 -1.5085,1.4611 -2.05546,2.08197 -2.44381,2.77406 -0.24336,0.43369 -0.50057,1.17386 -0.57013,1.64063 l -0.0536,0.35937 6.51232,0 6.51233,0 -0.0548,-0.35937 c -0.18607,-1.21923 -0.86025,-2.32482 -2.22005,-3.64063 -0.40853,-0.39531 -1.0772,-1.04219 -1.48593,-1.4375 -0.94597,-0.91492 -1.42008,-1.512 -1.76177,-2.21875 -0.50211,-1.03853 -0.58335,-2.06927 -0.24631,-3.125 0.33575,-1.05169 0.84994,-1.71494 2.64215,-3.40806 0.74698,-0.70569 1.56361,-1.53538 1.81473,-1.84375 0.68688,-0.84347 1.15292,-1.85392 1.28916,-2.79506 l 0.0339,-0.23438 -6.5234,0 -6.52339,0 0.0339,0.23438 z"
       id="path3040"
       inkscape:connector-curvature="0" />
    <path
       style="fill:#ffff00;fill-opacity:0.70588236999999998;stroke:none"
       d="m 370.13111,665.83049 c -0.669,-1.49804 -2.07388,-2.45759 -3.16383,-3.62673 -0.75353,-0.7533 -1.53144,-1.51226 -1.96898,-2.50413 -0.64331,1.4163 -1.90704,2.39596 -2.96892,3.4837 -0.821,0.79664 -1.71218,1.59371 -2.16975,2.66865 3.42643,0 6.85286,0 10.27928,0 z"
       id="path3044"
       inkscape:connector-curvature="0"
       sodipodi:nodetypes="ccccccc" />
  </g>
</svg>
